[gd_scene load_steps=3 format=2]

[ext_resource path="res://TimerExample.gd" type="Script" id=1]
[ext_resource path="res://favicon.png" type="Texture" id=2]

[node name="TimerExample" type="Node2D"]
script = ExtResource( 1 )

[node name="Timer" type="Timer" parent="."]
autostart = true

[node name="Sprite" type="Sprite" parent="."]
position = Vector2( 518.404, 297.485 )
scale = Vector2( 0.538319, 0.633256 )
texture = ExtResource( 2 )
